digraph G {
rankdir=TB;
compound=true;
label="simplification: after reshape motion, pipeline end\ncluster_2[_XlaCompiledKernel=true,_XlaNumConstantArgs=0].v7"
parameters_140513346091552 [shape=record,style=filled,fillcolor="lightblue1",label="{parameters | {<140513346091552> arg0\nf32[32]|<140513346342080> arg1\nf32[5,5,1,32]}}"];
140513346961056 [label="constant\n%constant\nf32[1,28,28,1]", shape=boxed, style=filled, fillcolor=palegreen];
140513347010896 [label="convolution:\nB@0,Z@3,KIZ@2,KOZ@3\npadding=[(2,2), (2,2)]\n%convolution\nf32[1,28,28,32]", shape=ellipse, style=filled, fillcolor=red];
140513346961056 -> 140513347010896 [headlabel="0",labeldistance=2];
parameters_140513346091552:140513346342080 -> 140513347010896 [headlabel="1",labeldistance=2];
140513345761472 [label="broadcast\n%broadcast\ndims={3}\nf32[1,28,28,32]", shape=ellipse, style=filled, fillcolor=peachpuff];
parameters_140513346091552:140513346091552 -> 140513345761472;
140513346409712 [label="add\n%add\nf32[1,28,28,32]", shape=ellipse, style=filled, fillcolor=peachpuff];
140513347010896 -> 140513346409712 [headlabel="0",labeldistance=2];
140513345761472 -> 140513346409712 [headlabel="1",labeldistance=2];
}
